单表数据处理
…
(top_n(iris, 5, Sepal.Width) %>% setDT()) # 因为并列第5都是3.9，所以筛出来6行

#>    Sepal.Length Sepal.Width Petal.Length Petal.Width Species
#> 1:          5.4         3.9          1.7         0.4  setosa
#> 2:          5.8         4.0          1.2         0.2  setosa
#> 3:          5.7         4.4          1.5         0.4  setosa
#> 4:          5.4         3.9          1.3         0.4  setosa
#> 5:          5.2         4.1          1.5         0.1  setosa
#> 6:          5.5         4.2          1.4         0.2  setosa

faithful <- as_tibble(faithful)
add_row(faithful, eruptions = 1, waiting = 1)

#> # A tibble: 273 × 2
#>    eruptions waiting
#>        <dbl>   <dbl>
#>  1      3.6       79
#>  2      1.8       54
#>  3      3.33      74
#>  4      2.28      62
#>  5      4.53      85
#>  6      2.88      55
#>  7      4.7       88
#>  8      3.6       85
#>  9      1.95      51
#> 10      4.35      85
#> # … with 263 more rows
…
# 选取11月或12月的航班，注意%in%的用法
nov_dec <- flights %>% filter(month %in% c(11, 12))
nov_dec

#> # A tibble: 55,403 × 19
#>     year month   day dep_time sched_dep_time dep_delay arr_time sched_arr_time
#>    <int> <int> <int>    <int>          <int>     <dbl>    <int>          <int>
#>  1  2013    11     1        5           2359         6      352            345
#>  2  2013    11     1       35           2250       105      123           2356
#>  3  2013    11     1      455            500        -5      641            651
#>  4  2013    11     1      539            545        -6      856            827
#>  5  2013    11     1      542            545        -3      831            855
#>  6  2013    11     1      549            600       -11      912            923
#>  7  2013    11     1      550            600       -10      705            659
#>  8  2013    11     1      554            600        -6      659            701
#>  9  2013    11     1      554            600        -6      826            827
#> 10  2013    11     1      554            600        -6      749            751
#> # … with 55,393 more rows, and 11 more variables: arr_delay <dbl>,
#> #   carrier <chr>, flight <int>, tailnum <chr>, origin <chr>, dest <chr>,
#> #   air_time <dbl>, distance <dbl>, hour <dbl>, minute <dbl>, time_hour <dttm>
…
mutate_all(), 计算新列覆盖同名旧列

mutate_if(), 按一定条件计算新列覆盖同名旧列

add_column()，合并列

flights %>%
  select(year:day, ends_with("delay"), distance, air_time) %>%
  mutate(
    gain = arr_delay - dep_delay,
    hours = air_time / 60, speed = distance / hours
  )

#> # A tibble: 336,776 × 10
#>     year month   day dep_delay arr_delay distance air_time  gain hours speed
#>    <int> <int> <int>     <dbl>     <dbl>    <dbl>    <dbl> <dbl> <dbl> <dbl>
#>  1  2013     1     1         2        11     1400      227     9 3.78   370.
#>  2  2013     1     1         4        20     1416      227    16 3.78   374.
#>  3  2013     1     1         2        33     1089      160    31 2.67   408.
#>  4  2013     1     1        -1       -18     1576      183   -17 3.05   517.
#>  5  2013     1     1        -6       -25      762      116   -19 1.93   394.
#>  6  2013     1     1        -4        12      719      150    16 2.5    288.
#>  7  2013     1     1        -5        19     1065      158    24 2.63   404.
#>  8  2013     1     1        -3       -14      229       53   -11 0.883  259.
#>  9  2013     1     1        -3        -8      944      140    -5 2.33   405.
#> 10  2013     1     1        -2         8      733      138    10 2.3    319.
#> # … with 336,766 more rows
…
flights %>% transmute(dep_time,
  hour = dep_time %/% 60,
  minute = dep_time %% 60
)

#> # A tibble: 336,776 × 3
#>    dep_time  hour minute
#>       <int> <dbl>  <dbl>
#>  1      517     8     37
#>  2      533     8     53
#>  3      542     9      2
#>  4      544     9      4
#>  5      554     9     14
#>  6      554     9     14
#>  7      555     9     15
#>  8      557     9     17
#>  9      557     9     17
#> 10      558     9     18
#> # … with 336,766 more rows

mutate_all(faithful, funs(log(.), log2(.)))

#> # A tibble: 272 × 6
#>    eruptions waiting eruptions_log waiting_log eruptions_log2 waiting_log2
#>        <dbl>   <dbl>         <dbl>       <dbl>          <dbl>        <dbl>
#>  1      3.6       79         1.28         4.37          1.85          6.30
#>  2      1.8       54         0.588        3.99          0.848         5.75
#>  3      3.33      74         1.20         4.30          1.74          6.21
#>  4      2.28      62         0.825        4.13          1.19          5.95
#>  5      4.53      85         1.51         4.44          2.18          6.41
#>  6      2.88      55         1.06         4.01          1.53          5.78
#>  7      4.7       88         1.55         4.48          2.23          6.46
#>  8      3.6       85         1.28         4.44          1.85          6.41
#>  9      1.95      51         0.668        3.93          0.963         5.67
#> 10      4.35      85         1.47         4.44          2.12          6.41
#> # … with 262 more rows

iris <- as_tibble(iris)
mutate_if(iris, is.numeric, funs(log(.)))

#> # A tibble: 150 × 5
#>    Sepal.Length Sepal.Width Petal.Length Petal.Width Species
#>           <dbl>       <dbl>        <dbl>       <dbl> <fct>  
#>  1         1.63        1.25        0.336      -1.61  setosa 
#>  2         1.59        1.10        0.336      -1.61  setosa 
#>  3         1.55        1.16        0.262      -1.61  setosa 
#>  4         1.53        1.13        0.405      -1.61  setosa 
#>  5         1.61        1.28        0.336      -1.61  setosa 
#>  6         1.69        1.36        0.531      -0.916 setosa 
#>  7         1.53        1.22        0.336      -1.20  setosa 
#>  8         1.61        1.22        0.405      -1.61  setosa 
#>  9         1.48        1.06        0.336      -1.61  setosa 
#> 10         1.59        1.13        0.405      -2.30  setosa 
#> # … with 140 more rows

mutate_at(iris, vars(-Species), funs(log(.)))

#> # A tibble: 150 × 5
#>    Sepal.Length Sepal.Width Petal.Length Petal.Width Species
#>           <dbl>       <dbl>        <dbl>       <dbl> <fct>  
#>  1         1.63        1.25        0.336      -1.61  setosa 
#>  2         1.59        1.10        0.336      -1.61  setosa 
#>  3         1.55        1.16        0.262      -1.61  setosa 
#>  4         1.53        1.13        0.405      -1.61  setosa 
#>  5         1.61        1.28        0.336      -1.61  setosa 
#>  6         1.69        1.36        0.531      -0.916 setosa 
#>  7         1.53        1.22        0.336      -1.20  setosa 
#>  8         1.61        1.22        0.405      -1.61  setosa 
#>  9         1.48        1.06        0.336      -1.61  setosa 
#> 10         1.59        1.13        0.405      -2.30  setosa 
#> # … with 140 more rows
…
rename(iris, Length = Sepal.Length)

#> # A tibble: 150 × 5
#>    Length Sepal.Width Petal.Length Petal.Width Species
#>     <dbl>       <dbl>        <dbl>       <dbl> <fct>  
#>  1    5.1         3.5          1.4         0.2 setosa 
#>  2    4.9         3            1.4         0.2 setosa 
#>  3    4.7         3.2          1.3         0.2 setosa 
#>  4    4.6         3.1          1.5         0.2 setosa 
#>  5    5           3.6          1.4         0.2 setosa 
#>  6    5.4         3.9          1.7         0.4 setosa 
#>  7    4.6         3.4          1.4         0.3 setosa 
#>  8    5           3.4          1.5         0.2 setosa 
#>  9    4.4         2.9          1.4         0.2 setosa 
#> 10    4.9         3.1          1.5         0.1 setosa 
#> # … with 140 more rows
…
mtcars %>%
  group_by(cyl) %>%
  summarise(avg = mean(mpg))

#> # A tibble: 3 × 2
#>     cyl   avg
#>   <dbl> <dbl>
#> 1     4  26.7
#> 2     6  19.7
#> 3     8  15.1

g_iris <- group_by(iris, Species)
ungroup(g_iris)

#> # A tibble: 150 × 5
#>    Sepal.Length Sepal.Width Petal.Length Petal.Width Species
#>           <dbl>       <dbl>        <dbl>       <dbl> <fct>  
#>  1          5.1         3.5          1.4         0.2 setosa 
#>  2          4.9         3            1.4         0.2 setosa 
#>  3          4.7         3.2          1.3         0.2 setosa 
#>  4          4.6         3.1          1.5         0.2 setosa 
#>  5          5           3.6          1.4         0.2 setosa 
#>  6          5.4         3.9          1.7         0.4 setosa 
#>  7          4.6         3.4          1.4         0.3 setosa 
#>  8          5           3.4          1.5         0.2 setosa 
#>  9          4.4         2.9          1.4         0.2 setosa 
#> 10          4.9         3.1          1.5         0.1 setosa 
#> # … with 140 more rows
虽然group_by()与summarize()结合起来使用是最有效的，但分组也可以与filter()和mutate()结合，以完成非常便捷的操作：如

找出每个分组中最差的成员

找出大于某个阈值的所有分组

对数据进行标准化以计算分组指标

# 每天到达延误时间最长的航班
flights %>%
  select(year:day, ends_with("delay"), distance, air_time) %>%
  group_by(year, month, day) %>%
  filter(rank(desc(arr_delay)) < 10)

#> # A tibble: 3,306 × 7
#> # Groups:   year, month, day [365]
#>     year month   day dep_delay arr_delay distance air_time
#>    <int> <int> <int>     <dbl>     <dbl>    <dbl>    <dbl>
#>  1  2013     1     1       853       851      184       41
#>  2  2013     1     1       290       338     1134      213
#>  3  2013     1     1       260       263      266       46
#>  4  2013     1     1       157       174      213       60
#>  5  2013     1     1       216       222      708      121
#>  6  2013     1     1       255       250      589      115
#>  7  2013     1     1       285       246     1085      146
#>  8  2013     1     1       192       191      199       44
#>  9  2013     1     1       379       456     1092      222
#> 10  2013     1     2       224       207      550       94
#> # … with 3,296 more rows

# 大于365个航班的航线
popular_dests <- flights %>%
  group_by(dest) %>%
  filter(n() > 365)
popular_dests

#> # A tibble: 332,577 × 19
#> # Groups:   dest [77]
#>     year month   day dep_time sched_dep_time dep_delay arr_time sched_arr_time
#>    <int> <int> <int>    <int>          <int>     <dbl>    <int>          <int>
#>  1  2013     1     1      517            515         2      830            819
#>  2  2013     1     1      533            529         4      850            830
#>  3  2013     1     1      542            540         2      923            850
#>  4  2013     1     1      544            545        -1     1004           1022
#>  5  2013     1     1      554            600        -6      812            837
#>  6  2013     1     1      554            558        -4      740            728
#>  7  2013     1     1      555            600        -5      913            854
#>  8  2013     1     1      557            600        -3      709            723
#>  9  2013     1     1      557            600        -3      838            846
#> 10  2013     1     1      558            600        -2      753            745
#> # … with 332,567 more rows, and 11 more variables: arr_delay <dbl>,
#> #   carrier <chr>, flight <int>, tailnum <chr>, origin <chr>, dest <chr>,
#> #   air_time <dbl>, distance <dbl>, hour <dbl>, minute <dbl>, time_hour <dttm>

# 对数据进行标准化以计算分组指标
popular_dests %>%
  filter(arr_delay > 0) %>%
  mutate(prop_delay = arr_delay / sum(arr_delay)) %>%
  select(year:day, dest, arr_delay, prop_delay)

#> # A tibble: 131,106 × 6
#> # Groups:   dest [77]
#>     year month   day dest  arr_delay prop_delay
#>    <int> <int> <int> <chr>     <dbl>      <dbl>
#>  1  2013     1     1 IAH          11  0.000111 
#>  2  2013     1     1 IAH          20  0.000201 
#>  3  2013     1     1 MIA          33  0.000235 
#>  4  2013     1     1 ORD          12  0.0000424
#>  5  2013     1     1 FLL          19  0.0000938
#>  6  2013     1     1 ORD           8  0.0000283
#>  7  2013     1     1 LAX           7  0.0000344
#>  8  2013     1     1 DFW          31  0.000282 
#>  9  2013     1     1 ATL          12  0.0000400
#> 10  2013     1     1 DTW          16  0.000116 
#> # … with 131,096 more rows

按多个变量分组

当使用多个变量进行分组时，每次的摘要统计会用掉一个分组变量。这样就可以轻松地对数据集进行循序渐进的分析。

daily <- group_by(flights, year, month, day)
(per_day <- summarize(daily, flights = n()))

#> # A tibble: 365 × 4
#> # Groups:   year, month [12]
#>     year month   day flights
#>    <int> <int> <int>   <int>
#>  1  2013     1     1     842
#>  2  2013     1     2     943
#>  3  2013     1     3     914
#>  4  2013     1     4     915
#>  5  2013     1     5     720
#>  6  2013     1     6     832
#>  7  2013     1     7     933
#>  8  2013     1     8     899
#>  9  2013     1     9     902
#> 10  2013     1    10     932
#> # … with 355 more rows
…
秩的度量 min(), max(),
quantile(x, 0.25)

离散程度 sd()、var(), mad(),
IQR()

例1 观察航班数据的若干统计量

# by_date是flights按年月日分组后的新数据
by_date <- group_by(flights, year, month, day)
# 由此得到每一天的平均延误时间。
summarize(by_date, delay = mean(dep_delay, na.rm = T))

#> # A tibble: 365 × 4
#> # Groups:   year, month [12]
#>     year month   day delay
#>    <int> <int> <int> <dbl>
#>  1  2013     1     1 11.5 
#>  2  2013     1     2 13.9 
#>  3  2013     1     3 11.0 
#>  4  2013     1     4  8.95
#>  5  2013     1     5  5.73
#>  6  2013     1     6  7.15
#>  7  2013     1     7  5.42
#>  8  2013     1     8  2.55
#>  9  2013     1     9  2.28
#> 10  2013     1    10  2.84
#> # … with 355 more rows

# 也可以用管道操作写成
flights %>%
  group_by(year, month, day) %>%
  summarize(delay = mean(dep_delay, na.rm = TRUE))

#> # A tibble: 365 × 4
#> # Groups:   year, month [12]
#>     year month   day delay
#>    <int> <int> <int> <dbl>
#>  1  2013     1     1 11.5 
#>  2  2013     1     2 13.9 
#>  3  2013     1     3 11.0 
#>  4  2013     1     4  8.95
#>  5  2013     1     5  5.73
#>  6  2013     1     6  7.15
#>  7  2013     1     7  5.42
#>  8  2013     1     8  2.55
#>  9  2013     1     9  2.28
#> 10  2013     1    10  2.84
#> # … with 355 more rows

# 也可以预先去掉存在NA（航班取消）的行，写成
not_cancelled <- flights %>%
  filter(!is.na(dep_delay), !is.na(arr_delay))

not_cancelled %>%
  group_by(year, month, day) %>%
  summarize(delay = mean(dep_delay))

#> # A tibble: 365 × 4
#> # Groups:   year, month [12]
#>     year month   day delay
#>    <int> <int> <int> <dbl>
#>  1  2013     1     1 11.4 
#>  2  2013     1     2 13.7 
#>  3  2013     1     3 10.9 
#>  4  2013     1     4  8.97
#>  5  2013     1     5  5.73
#>  6  2013     1     6  7.15
#>  7  2013     1     7  5.42
#>  8  2013     1     8  2.56
#>  9  2013     1     9  2.30
#> 10  2013     1    10  2.84
#> # … with 355 more rows

# 观察平均正延误时间
not_cancelled %>%
  group_by(year, month, day) %>%
  summarize(delay_pos = mean(dep_delay[dep_delay > 0]))

#> # A tibble: 365 × 4
#> # Groups:   year, month [12]
#>     year month   day delay_pos
#>    <int> <int> <int>     <dbl>
#>  1  2013     1     1      32.6
#>  2  2013     1     2      32.4
#>  3  2013     1     3      28.3
#>  4  2013     1     4      26.2
#>  5  2013     1     5      21.8
#>  6  2013     1     6      22.1
#>  7  2013     1     7      26.2
#>  8  2013     1     8      21.3
#>  9  2013     1     9      26.5
#> 10  2013     1    10      32.6
#> # … with 355 more rows
…
# 根据球员ID分组统计，总击打数ab和安打率ba（安打数/击打数）
# 分组统计后包含playerID, ab, ba变量的新数据框为batters
batters <- batting %>%
  group_by(playerID) %>%
  summarize(
    ba = sum(H, na.rm = TRUE) / sum(AB, na.rm = TRUE),
    ab = sum(AB, na.rm = TRUE)
  )

# 按安打率排名，发现位次最靠前的是一些总击打数几乎为零、
# 靠好运气获得极高安打率的球员——而这并不表明能力强。
batters %>% arrange(desc(ba))

#> # A tibble: 19,898 × 3
#>    playerID     ba    ab
#>    <chr>     <dbl> <int>
#>  1 abramge01     1     1
#>  2 alanirj01     1     1
#>  3 alberan01     1     1
#>  4 banisje01     1     1
#>  5 bartocl01     1     1
#>  6 bassdo01      1     1
#>  7 birasst01     1     2
#>  8 bruneju01     1     1
#>  9 burnscb01     1     1
#> 10 cammaer01     1     1
#> # … with 19,888 more rows
…
# 从N.Y.到其他机场飞行距离的标准差
not_cancelled %>%
  group_by(dest) %>%
  summarize(distance_sd = sd(distance)) %>%
  arrange(desc(distance_sd))

#> # A tibble: 104 × 2
#>    dest  distance_sd
#>    <chr>       <dbl>
#>  1 EGE         10.5 
#>  2 SAN         10.4 
#>  3 SFO         10.2 
#>  4 HNL         10.0 
#>  5 SEA          9.98
#>  6 LAS          9.91
#>  7 PDX          9.87
#>  8 PHX          9.86
#>  9 LAX          9.66
#> 10 IND          9.46
#> # … with 94 more rows

# 每天最早和最晚航班的出发时间
not_cancelled %>%
  group_by(year, month, day) %>%
  summarize(first = min(dep_time), last = max(dep_time))

#> # A tibble: 365 × 5
#> # Groups:   year, month [12]
#>     year month   day first  last
#>    <int> <int> <int> <int> <int>
#>  1  2013     1     1   517  2356
#>  2  2013     1     2    42  2354
#>  3  2013     1     3    32  2349
#>  4  2013     1     4    25  2358
#>  5  2013     1     5    14  2357
#>  6  2013     1     6    16  2355
#>  7  2013     1     7    49  2359
#>  8  2013     1     8   454  2351
#>  9  2013     1     9     2  2252
#> 10  2013     1    10     3  2320
#> # … with 355 more rows

# 找出每天最早和最晚出发的航班
# min_rank(x)可以返回一个序列各元素的升序位置向量
# min_rank(desc(x))返回降序位置向量
# 对出发时间排序后，用range()取出最大值和最小值
# 再用filter()取出每天出发最早和最晚的航班
not_cancelled %>%
  group_by(year, month, day) %>%
  mutate(r = min_rank(desc(dep_time))) %>%
  filter(r %in% range(r))

#> # A tibble: 770 × 20
#> # Groups:   year, month, day [365]
#>     year month   day dep_time sched_dep_time dep_delay arr_time sched_arr_time
#>    <int> <int> <int>    <int>          <int>     <dbl>    <int>          <int>
#>  1  2013     1     1      517            515         2      830            819
#>  2  2013     1     1     2356           2359        -3      425            437
#>  3  2013     1     2       42           2359        43      518            442
#>  4  2013     1     2     2354           2359        -5      413            437
#>  5  2013     1     3       32           2359        33      504            442
#>  6  2013     1     3     2349           2359       -10      434            445
#>  7  2013     1     4       25           2359        26      505            442
#>  8  2013     1     4     2358           2359        -1      429            437
#>  9  2013     1     4     2358           2359        -1      436            445
#> 10  2013     1     5       14           2359        15      503            445
#> # … with 760 more rows, and 12 more variables: arr_delay <dbl>, carrier <chr>,
#> #   flight <int>, tailnum <chr>, origin <chr>, dest <chr>, air_time <dbl>,
#> #   distance <dbl>, hour <dbl>, minute <dbl>, time_hour <dttm>, r <int>

# 纽约至哪个目的地的航线有最多的航空公司运营
# n_distinct()函数统计唯一值的数量
not_cancelled %>%
  group_by(dest) %>%
  summarize(carriers = n_distinct(carrier)) %>%
  arrange(desc(carriers))

#> # A tibble: 104 × 2
#>    dest  carriers
#>    <chr>    <int>
#>  1 ATL          7
#>  2 BOS          7
#>  3 CLT          7
#>  4 ORD          7
#>  5 TPA          7
#>  6 AUS          6
#>  7 DCA          6
#>  8 DTW          6
#>  9 IAD          6
#> 10 MSP          6
#> # … with 94 more rows

# 纽约出发的每条航线有多少个航班
not_cancelled %>% count(dest)

#> # A tibble: 104 × 2
#>    dest      n
#>    <chr> <int>
#>  1 ABQ     254
#>  2 ACK     264
#>  3 ALB     418
#>  4 ANC       8
#>  5 ATL   16837
#>  6 AUS    2411
#>  7 AVL     261
#>  8 BDL     412
#>  9 BGR     358
#> 10 BHM     269
#> # … with 94 more rows

# 加权记数，计算每个航班的总飞行距离
not_cancelled %>% count(tailnum, wt = distance)

#> # A tibble: 4,037 × 2
#>    tailnum      n
#>    <chr>    <dbl>
#>  1 D942DN    3418
#>  2 N0EGMQ  239143
#>  3 N10156  109664
#>  4 N102UW   25722
#>  5 N103US   24619
#>  6 N104UW   24616
#>  7 N10575  139903
#>  8 N105UW   23618
#>  9 N107US   21677
#> 10 N108UW   32070
#> # … with 4,027 more rows
…
