关系数据处理
…
想要将航空公司的全名加入flights2数据集，你可以通过left_join()函数组合airlines
和 flights2 数据框

flights2 %>%
  select(-origin, -dest) %>%
  left_join(airlines, by = "carrier")

#> # A tibble: 336,776 x 7
#>     year month   day  hour tailnum carrier name                    
#>    <int> <int> <int> <dbl> <chr>   <chr>   <chr>                   
#>  1  2013     1     1     5 N14228  UA      United Air Lines Inc.   
#>  2  2013     1     1     5 N24211  UA      United Air Lines Inc.   
#>  3  2013     1     1     5 N619AA  AA      American Airlines Inc.  
#>  4  2013     1     1     5 N804JB  B6      JetBlue Airways         
#>  5  2013     1     1     6 N668DN  DL      Delta Air Lines Inc.    
#>  6  2013     1     1     5 N39463  UA      United Air Lines Inc.   
#>  7  2013     1     1     6 N516JB  B6      JetBlue Airways         
#>  8  2013     1     1     6 N829AS  EV      ExpressJet Airlines Inc.
#>  9  2013     1     1     6 N593JB  B6      JetBlue Airways         
#> 10  2013     1     1     6 N3ALAA  AA      American Airlines Inc.  
#> # ... with 336,766 more rows

# 另一种操作方法
flights2 %>%
  select(-origin, -dest) %>%
  mutate(name = airlines$name[match(carrier, airlines$carrier)])

#> # A tibble: 336,776 x 7
#>     year month   day  hour tailnum carrier name                    
#>    <int> <int> <int> <dbl> <chr>   <chr>   <chr>                   
#>  1  2013     1     1     5 N14228  UA      United Air Lines Inc.   
#>  2  2013     1     1     5 N24211  UA      United Air Lines Inc.   
#>  3  2013     1     1     5 N619AA  AA      American Airlines Inc.  
#>  4  2013     1     1     5 N804JB  B6      JetBlue Airways         
#>  5  2013     1     1     6 N668DN  DL      Delta Air Lines Inc.    
#>  6  2013     1     1     5 N39463  UA      United Air Lines Inc.   
#>  7  2013     1     1     6 N516JB  B6      JetBlue Airways         
#>  8  2013     1     1     6 N829AS  EV      ExpressJet Airlines Inc.
#>  9  2013     1     1     6 N593JB  B6      JetBlue Airways         
#> 10  2013     1     1     6 N3ALAA  AA      American Airlines Inc.  
#> # ... with 336,766 more rows
…
反连接可以用于诊断连接中的不匹配。例如，在连接 flights 和 planes
时，你可能想知道 flights 中是否有很多行在 planes 中没有匹配记录：

flights %>%
  anti_join(planes, by = "tailnum") %>%
  count(tailnum, sort = TRUE)

#> # A tibble: 722 x 2
#>    tailnum     n
#>    <chr>   <int>
#>  1 <NA>     2512
#>  2 N725MQ    575
#>  3 N722MQ    513
#>  4 N723MQ    507
#>  5 N713MQ    483
#>  6 N735MQ    396
#>  7 N0EGMQ    371
#>  8 N534MQ    364
#>  9 N542MQ    363
#> 10 N531MQ    349
#> # ... with 712 more rows
…
